%YAML 1.1
%TAG !u! tag:unity3d.com,2011:
--- !u!1045 &1
EditorBuildSettings:
  m_ObjectHideFlags: 0
  serializedVersion: 2
  m_Scenes:
  - enabled: 0
    path: 
    guid: 00000000000000000000000000000000
  - enabled: 1
    path: Assets/Scenes/MainMenu.unity
    guid: 7fc1f3115fb21874d8c6f058f3d2aa53
  - enabled: 1
    path: Assets/Scenes/MainScene.unity
    guid: 925e90c40e0aff345a4b7f5be92b67e7
  - enabled: 0
    path: Assets/Scenes/BaseScene.unity
    guid: 8d9640321c30a5643a3a5765fb8c2843
  - enabled: 1
    path: Assets/Scenes/MultiScreenScene.unity
    guid: aab67c553af76d543b30dc63323eb963
  - enabled: 1
    path: Assets/Scenes/RailScene.unity
    guid: 318452fd670c5dd489622586e2803cfd
  - enabled: 1
    path: Assets/Scenes/DavidScene.unity
    guid: fed10993aba35ca4bbd832fd1ff9d5e9
  - enabled: 1
    path: Assets/Scenes/EndCredit.unity
    guid: ef5d851ad4c0188478b27aa93594f6ab
  - enabled: 1
    path: Assets/Scenes/MultiColorScene.unity
    guid: 5e507217e2ea47d469405f9dc72f4756
  m_configObjects: {}
