%YAML 1.1
%TAG !u! tag:unity3d.com,2011:
--- !u!13 &1
InputManager:
  m_ObjectHideFlags: 0
  serializedVersion: 2
  m_Axes:
  - serializedVersion: 3
    m_Name: side_p0
    descriptiveName: 
    descriptiveNegativeName: 
    negativeButton: left
    positiveButton: right
    altNegativeButton: 
    altPositiveButton: 
    gravity: 3
    dead: 0.001
    sensitivity: 3
    snap: 1
    invert: 0
    type: 0
    axis: 1
    joyNum: 0
  - serializedVersion: 3
    m_Name: front_p0
    descriptiveName: 
    descriptiveNegativeName: 
    negativeButton: down
    positiveButton: up
    altNegativeButton: s
    altPositiveButton: w
    gravity: 3
    dead: 0.001
    sensitivity: 3
    snap: 1
    invert: 0
    type: 0
    axis: 1
    joyNum: 0
  - serializedVersion: 3
    m_Name: grab_p0
    descriptiveName: 
    descriptiveNegativeName: 
    negativeButton: 
    positiveButton: a
    altNegativeButton: 
    altPositiveButton: joystick button 0
    gravity: 1000
    dead: 0.001
    sensitivity: 1000
    snap: 0
    invert: 0
    type: 0
    axis: 0
    joyNum: 1
  - serializedVersion: 3
    m_Name: grab_p1
    descriptiveName: 
    descriptiveNegativeName: 
    negativeButton: 
    positiveButton: 
    altNegativeButton: 
    altPositiveButton: joystick button 0
    gravity: 1000
    dead: 0.001
    sensitivity: 1000
    snap: 0
    invert: 0
    type: 0
    axis: 0
    joyNum: 1
  - serializedVersion: 3
    m_Name: grab_p2
    descriptiveName: 
    descriptiveNegativeName: 
    negativeButton: 
    positiveButton: 
    altNegativeButton: 
    altPositiveButton: joystick button 0
    gravity: 1000
    dead: 0.001
    sensitivity: 1000
    snap: 0
    invert: 0
    type: 0
    axis: 0
    joyNum: 2
  - serializedVersion: 3
    m_Name: side_p1
    descriptiveName: 
    descriptiveNegativeName: 
    negativeButton: 
    positiveButton: 
    altNegativeButton: 
    altPositiveButton: 
    gravity: 0
    dead: 0.19
    sensitivity: 1
    snap: 0
    invert: 0
    type: 2
    axis: 0
    joyNum: 1
  - serializedVersion: 3
    m_Name: side_p2
    descriptiveName: 
    descriptiveNegativeName: 
    negativeButton: 
    positiveButton: 
    altNegativeButton: 
    altPositiveButton: 
    gravity: 0
    dead: 0.19
    sensitivity: 1
    snap: 0
    invert: 0
    type: 2
    axis: 0
    joyNum: 2
  - serializedVersion: 3
    m_Name: front_p1
    descriptiveName: 
    descriptiveNegativeName: 
    negativeButton: 
    positiveButton: 
    altNegativeButton: 
    altPositiveButton: 
    gravity: 0
    dead: 0.19
    sensitivity: 1
    snap: 0
    invert: 1
    type: 2
    axis: 1
    joyNum: 1
  - serializedVersion: 3
    m_Name: front_p2
    descriptiveName: 
    descriptiveNegativeName: 
    negativeButton: 
    positiveButton: 
    altNegativeButton: 
    altPositiveButton: 
    gravity: 0
    dead: 0.19
    sensitivity: 1
    snap: 0
    invert: 1
    type: 2
    axis: 1
    joyNum: 2
  - serializedVersion: 3
    m_Name: Enable Debug Button 1
    descriptiveName: 
    descriptiveNegativeName: 
    negativeButton: 
    positiveButton: left ctrl
    altNegativeButton: 
    altPositiveButton: joystick button 8
    gravity: 0
    dead: 0
    sensitivity: 0
    snap: 0
    invert: 0
    type: 0
    axis: 0
    joyNum: 0
  - serializedVersion: 3
    m_Name: Enable Debug Button 2
    descriptiveName: 
    descriptiveNegativeName: 
    negativeButton: 
    positiveButton: backspace
    altNegativeButton: 
    altPositiveButton: joystick button 9
    gravity: 0
    dead: 0
    sensitivity: 0
    snap: 0
    invert: 0
    type: 0
    axis: 0
    joyNum: 0
  - serializedVersion: 3
    m_Name: Debug Reset
    descriptiveName: 
    descriptiveNegativeName: 
    negativeButton: 
    positiveButton: left alt
    altNegativeButton: 
    altPositiveButton: joystick button 1
    gravity: 0
    dead: 0
    sensitivity: 0
    snap: 0
    invert: 0
    type: 0
    axis: 0
    joyNum: 0
  - serializedVersion: 3
    m_Name: Debug Next
    descriptiveName: 
    descriptiveNegativeName: 
    negativeButton: 
    positiveButton: page down
    altNegativeButton: 
    altPositiveButton: joystick button 5
    gravity: 0
    dead: 0
    sensitivity: 0
    snap: 0
    invert: 0
    type: 0
    axis: 0
    joyNum: 0
  - serializedVersion: 3
    m_Name: Debug Previous
    descriptiveName: 
    descriptiveNegativeName: 
    negativeButton: 
    positiveButton: page up
    altNegativeButton: 
    altPositiveButton: joystick button 4
    gravity: 0
    dead: 0
    sensitivity: 0
    snap: 0
    invert: 0
    type: 0
    axis: 0
    joyNum: 0
  - serializedVersion: 3
    m_Name: Debug Validate
    descriptiveName: 
    descriptiveNegativeName: 
    negativeButton: 
    positiveButton: return
    altNegativeButton: 
    altPositiveButton: joystick button 0
    gravity: 0
    dead: 0
    sensitivity: 0
    snap: 0
    invert: 0
    type: 0
    axis: 0
    joyNum: 0
  - serializedVersion: 3
    m_Name: Submit
    descriptiveName: 
    descriptiveNegativeName: 
    negativeButton: 
    positiveButton: return
    altNegativeButton: 
    altPositiveButton: joystick button 7
    gravity: 0
    dead: 0
    sensitivity: 0
    snap: 0
    invert: 0
    type: 0
    axis: 0
    joyNum: 0
  - serializedVersion: 3
    m_Name: Cancel
    descriptiveName: 
    descriptiveNegativeName: 
    negativeButton: 
    positiveButton: 
    altNegativeButton: 
    altPositiveButton: joystick button 1
    gravity: 0
    dead: 0
    sensitivity: 0
    snap: 0
    invert: 0
    type: 0
    axis: 0
    joyNum: 0
  - serializedVersion: 3
    m_Name: Horizontal
    descriptiveName: 
    descriptiveNegativeName: 
    negativeButton: left
    positiveButton: right
    altNegativeButton: 
    altPositiveButton: 
    gravity: 1000
    dead: 0.001
    sensitivity: 1000
    snap: 0
    invert: 0
    type: 0
    axis: 0
    joyNum: 0
  - serializedVersion: 3
    m_Name: Vertical
    descriptiveName: 
    descriptiveNegativeName: 
    negativeButton: down
    positiveButton: up
    altNegativeButton: 
    altPositiveButton: 
    gravity: 1000
    dead: 0.001
    sensitivity: 1000
    snap: 0
    invert: 0
    type: 0
    axis: 0
    joyNum: 0
  - serializedVersion: 3
    m_Name: Debug Vertical
    descriptiveName: 
    descriptiveNegativeName: 
    negativeButton: down
    positiveButton: up
    altNegativeButton: 
    altPositiveButton: 
    gravity: 1000
    dead: 0.001
    sensitivity: 1000
    snap: 0
    invert: 0
    type: 2
    axis: 6
    joyNum: 0
  - serializedVersion: 3
    m_Name: Debug Horizontal
    descriptiveName: 
    descriptiveNegativeName: 
    negativeButton: left
    positiveButton: right
    altNegativeButton: 
    altPositiveButton: 
    gravity: 1000
    dead: 0.001
    sensitivity: 1000
    snap: 0
    invert: 0
    type: 2
    axis: 5
    joyNum: 0
