%YAML 1.1
%TAG !u! tag:unity3d.com,2011:
--- !u!21 &2100000
Material:
  serializedVersion: 6
  m_ObjectHideFlags: 0
  m_CorrespondingSourceObject: {fileID: 0}
  m_PrefabInstance: {fileID: 0}
  m_PrefabAsset: {fileID: 0}
  m_Name: Gradient Skybox
  m_Shader: {fileID: 4800000, guid: d2e99571d747b964c9cea6595dfb3a67, type: 3}
  m_ShaderKeywords: 
  m_LightmapFlags: 4
  m_EnableInstancingVariants: 0
  m_DoubleSidedGI: 0
  m_CustomRenderQueue: -1
  stringTagMap: {}
  disabledShaderPasses: []
  m_SavedProperties:
    serializedVersion: 3
    m_TexEnvs: []
    m_Floats:
    - _Exponent: 0
    - _Intensity: 1
    - _UpVectorPitch: 0
    - _UpVectorYaw: 0
    m_Colors:
    - _Color1: {r: 0.254717, g: 0.254717, b: 0.254717, a: 0}
    - _Color2: {r: 0.2735849, g: 0.2735849, b: 0.2735849, a: 0}
    - _UpVector: {r: 0, g: 1, b: 0, a: 0}
