%YAML 1.1
%TAG !u! tag:unity3d.com,2011:
--- !u!21 &2100000
Material:
  serializedVersion: 6
  m_ObjectHideFlags: 0
  m_CorrespondingSourceObject: {fileID: 0}
  m_PrefabInstance: {fileID: 0}
  m_PrefabAsset: {fileID: 0}
  m_Name: LineMaterial
  m_Shader: {fileID: -6465566751694194690, guid: 9b5a375fd050f33469b70788cbb1f3e7,
    type: 3}
  m_ShaderKeywords: 
  m_LightmapFlags: 4
  m_EnableInstancingVariants: 0
  m_DoubleSidedGI: 0
  m_CustomRenderQueue: -1
  stringTagMap: {}
  disabledShaderPasses: []
  m_SavedProperties:
    serializedVersion: 3
    m_TexEnvs:
    - Texture2D_B8C3EF24:
        m_Texture: {fileID: 2800000, guid: 71feae8cdc892e24da44f0915a8b0602, type: 3}
        m_Scale: {x: 1, y: 1}
        m_Offset: {x: 0, y: 0}
    m_Floats: []
    m_Colors:
    - Color_E2C8D8B7: {r: 1, g: 0.03301889, b: 0.03301889, a: 0}
    - Color_FF3F337E: {r: 0.9716981, g: 0.14685676, b: 0.09625311, a: 0}
